// Jest Snapshot v1, https://goo.gl/fbAQLP

exports[`Management 1`] = `
<div
  className="ant-row"
  style={undefined}
>
  <div
    className="ant-col-8 ant-col-offset-8"
    style={undefined}
  >
    <h2>
      Management area
    </h2>
  </div>
</div>
`;
